Feature Key           attenuator


Definition            1) region of DNA at which regulation of termination of
                         transcription occurs, which controls the expression
                         of some bacterial operons;
                      2) sequence segment located between the promoter and the
                         first structural gene that causes partial termination
                         of transcription

Optional qualifiers   /citation=[number]
                      /db_xref="<database>:<identifier>"
                      /evidence=<evidence_value>
                      /gene="text"
                      /label=feature_label
                      /locus_tag="text" (single token)
                      /map="text"
                      /note="text"
                      /phenotype="text"
                      /usedin=accnum:feature_label

Organism scope        prokaryotes

Molecule scope        DNA
 
Feature Key           C_region


Definition            constant region of immunoglobulin light and heavy 
                      chains, and T-cell receptor alpha, beta, and gamma 
                      chains; includes one or more exons depending on the 
                      particular chain

Optional qualifiers   /citation=[number]
                      /db_xref="<database>:<identifier>"
                      /evidence=<evidence_value>
                      /gene="text"
                      /label=feature_label
                      /locus_tag="text" (single token)
                      /map="text"
                      /note="text"
                      /product="text"
                      /pseudo
                      /standard_name="text"
                      /usedin=accnum:feature_label


Parent Key            CDS

Organism scope        eukaryotes
 
Feature Key           CAAT_signal


Definition            CAAT box; part of a conserved sequence located about 75
                      bp up-stream of the start point of eukaryotic
                      transcription units which may be involved in RNA
                      polymerase binding; consensus=GG(C or T)CAATCT [1,2].

Optional qualifiers   /citation=[number]
                      /db_xref="<database>:<identifier>"
                      /evidence=<evidence_value>
                      /gene="text"
                      /label=feature_label
                      /locus_tag="text" (single token)
                      /map="text"
                      /note="text"
                      /usedin=accnum:feature_label

Organism scope        eukaryotes and eukaryotic viruses

Molecule scope        DNA


 
Feature Key           CDS


Definition            coding sequence; sequence of nucleotides that
                      corresponds with the sequence of amino acids in a
                      protein (location includes stop codon);
                      feature includes amino acid conceptual translation;

Optional qualifiers   /allele="text"
                      /citation=[number]
                      /codon=(seq:"text",aa:<amino_acid>)
                      /codon_start=<1 or 2 or 3>
                      /db_xref="<database>:<identifier>"
                      /EC_number="text"
                      /evidence=<evidence_value>
                      /exception="text"
                      /function="text"
                      /gene="text"
                      /label=feature_label
                      /locus_tag="text" (single token)
                      /map="text"
                      /note="text"
                      /number=unquoted text (single token)
                      /product="text"
                      /protein_id="<identifier>"
                      /pseudo
                      /standard_name="text"
                      /translation="text"
                      /transl_except=(pos:<base_range>,aa:<amino_acid>)
                      /transl_table =<integer>
                      /usedin=accnum:feature_label

 
Feature Key           conflict


Definition            independent determinations of the "same" sequence differ
                      at this site or region;

Mandatory qualifiers  /citation=[number]

Optional qualifiers   /db_xref="<database>:<identifier>"
                      /evidence=<evidence_value>
                      /gene="text"
                      /label=feature_label
                      /locus_tag="text" (single token)
                      /map="text"
                      /note="text"
                      /replace="text"
                      /usedin=accnum:feature_label

 
Feature Key           D-loop


Definition            displacement loop; a region within mitochondrial DNA in
                      which a short stretch of RNA is paired with one strand
                      of DNA, displacing the original partner DNA strand in
                      this region; also used to describe the displacement of a
                      region of one strand of duplex DNA by a single stranded
                      invader in the reaction catalyzed by RecA protein

Optional qualifiers   /citation=[number]
                      /db_xref="<database>:<identifier>"
                      "<database>:<identifier>"
                      /evidence=<evidence_value>
                      /gene="text"
                      /label=feature_label
                      /locus_tag="text" (single token)
                      /map="text"
                      /note="text"
                      /usedin=accnum:feature_label

Molecule scope        DNA
 
Feature Key           D_segment


Definition            Diversity segment of immunoglobulin heavy chain, and 
                      T-cell receptor beta chain;  

Optional qualifiers   /citation=[number]
                      /db_xref="<database>:<identifier>"
                      /evidence=<evidence_value>
                      /gene="text"
                      /label=feature_label
                      /locus_tag="text" (single token)                      
                      /map="text"
                      /note="text"
                      /product="text"
                      /pseudo
                      /standard_name="text"
                      /usedin=accnum:feature_label
                      
Parent Key            CDS

Organism scope        eukaryotes
 

Feature Key           enhancer


Definition            a cis-acting sequence that increases the utilization of
                      (some)  eukaryotic promoters, and can function in either
                      orientation and in any location (upstream or downstream)
                      relative to the promoter;

Optional qualifiers   /citation=[number]
                      /db_xref="<database>:<identifier>"
                      /evidence=<evidence_value>
                      /label=feature_label
                      /gene="text   
                      /locus_tag="text" (single token)
                      /map="text"
                      /note="text"
                      /standard_name="text"
                      /usedin=accnum:feature_label

Organism scope        eukaryotes and eukaryotic viruses
 
Feature Key           exon


Definition            region of genome that codes for portion of spliced mRNA, 
                      rRNA and tRNA; may contain 5'UTR, all CDSs and 3' UTR; 


Optional qualifiers   /allele="text"
                      /citation=[number]
                      /db_xref="<database>:<identifier>"
                      /EC_number="text"
                      /evidence=<evidence_value>
                      /function="text"
                      /gene="text"
                      /label=feature_label   
                      /locus_tag="text" (single token)
                      /map="text"
                      /note="text"
                      /number=unquoted text (single token)
                      /product="text"
                      /pseudo
                      /standard_name="text"
                      /usedin=accnum:feature_label

 
Feature Key           GC_signal


Definition            GC box; a conserved GC-rich region located upstream of
                      the start point of eukaryotic transcription units which
                      may occur in multiple copies or in either orientation;
                      consensus=GGGCGG;

Optional qualifiers   /citation=[number]
                      /db_xref="<database>:<identifier>"
                      /evidence=<evidence_value>
                      /gene="text"
                      /label=feature_label   
                      /locus_tag="text" (single token)
                      /map="text"
                      /note="text"
                      /usedin=accnum:feature_label

Organism scope        eukaryotes and eukaryotic viruses

Feature Key           gene


Definition            region of biological interest identified as a gene 
                      and for which a name has been assigned;

Optional qualifiers   /allele="text"
                      /citation=[number]
                      /db_xref="<database>:<identifier>"
                      /evidence=<evidence_value>
                      /function="text"
                      /gene="text"
                      /label=feature_label   
                      /locus_tag="text" (single token)
                      /map="text"
                      /note="text"
                      /product="text"
                      /pseudo
                      /phenotype="text"
                      /standard_name="text"
                      /usedin=accnum:feature_label
        


Feature Key           iDNA


Definition            intervening DNA; DNA which is eliminated through any of
                      several kinds of recombination;

Optional qualifiers   /citation=[number]
                      /db_xref="<database>:<identifier>"
                      /evidence=<evidence_value>
                      /function="text"
                      /gene="text"
                      /label=feature_label
                      /locus_tag="text" (single token)
                      /map="text"
                      /note="text"
                      /number=unquoted text (single token)
                      /standard_name="text"
                      /usedin=accnum:feature_label

Molecule scope        DNA

Comment               e.g., in the somatic processing of immunoglobulin genes.
 
Feature Key           intron


Definition            a segment of DNA that is transcribed, but removed from
                      within the transcript by splicing together the sequences
                      (exons) on either side of it;

Optional qualifiers   /allele="text"
                      /citation=[number]
                      /cons_splice=(5'site:<bool>,3'site:<bool>)
                      /db_xref="<database>:<identifier>"
                      /evidence=<evidence_value>
                      /function="text"
                      /gene="text"
                      /label=feature_label
                      /locus_tag="text" (single token)
                      /map="text"
                      /note="text"
                      /number=unquoted text (single token)
                      /standard_name="text"
                      /usedin=accnum:feature_label

Feature Key           J_segment
 

Definition            joining segment of immunoglobulin light and heavy 
                      chains, and T-cell receptor alpha, beta, and gamma 
                      chains;  

Optional qualifiers   /citation=[number]
                      /db_xref="<database>:<identifier>"
                      /evidence=<evidence_value>
                      /gene="text"
                      /locus_tag="text" (single token)
                      /map="text"
                      /note="text"
                      /product="text"
                      /pseudo
                      /standard_name="text"
                      /usedin=accnum:feature_label

Parent Key            CDS

Organism scope        eukaryotes
 
Feature Key           LTR


Definition            long terminal repeat, a sequence directly repeated at
                      both ends of a defined sequence, of the sort typically
                      found in retroviruses;

Optional qualifiers   /citation=[number]
                      /db_xref="<database>:<identifier>"
                      /evidence=<evidence_value>
                      /function="text"
                      /gene="text"
                      /label=feature_label
                      /locus_tag="text" (single token)
                      /map="text"
                      /note="text"
                      /standard_name="text"
                      /usedin=accnum:feature_label
 
Feature Key           mat_peptide


Definition            mature peptide or protein coding sequence; coding
                      sequence for the mature or final peptide or protein
                      product following post-translational modification; the
                      location does not include the stop codon (unlike the
                      corresponding CDS);

Optional qualifiers   /citation=[number]
                      /db_xref="<database>:<identifier>"
                      /EC_number="text"
                      /evidence=<evidence_value>
                      /function="text"
                      /gene="text"
                      /label=feature_label
                      /locus_tag="text" (single token)
                      /map="text"
                      /note="text"
                      /product="text"
                      /pseudo
                      /standard_name="text"
                      /usedin=accnum:feature_label


 

Feature Key           misc_binding


Definition            site in nucleic acid which covalently or non-covalently
                      binds another moiety that cannot be described by any
                      other binding key (primer_bind or protein_bind);

Mandatory qualifiers  /bound_moiety="text"

Optional qualifiers   /citation=[number]
                      /db_xref="<database>:<identifier>"
                      /evidence=<evidence_value>
                      /function="text"
                      /gene="text"
                      /label=feature_label
                      /locus_tag="text" (single token)
                      /map="text"
                      /note="text"
                      /usedin=accnum:feature_label


Feature Key           misc_difference


Definition            feature sequence is different from that presented 
                      in the entry and cannot be described by any other 
                      Difference key (conflict, unsure, old_sequence, 
                      variation, or modified_base);

Optional qualifiers   /citation=[number]
                      /clone="text"
                      /db_xref="<database>:<identifier>"
                      /evidence=<evidence_value> 
                      /gene="text"
                      /label=feature_label
                      /locus_tag="text" (single token)
                      /map="text" 
                      /note="text"
                      /phenotype="text"
                      /replace="text" 
                      /standard_name="text"
                      /usedin=accnum:feature_label

 
Feature Key           misc_feature


Definition            region of biological interest which cannot be described
                      by any other feature key; a new or rare feature;

Optional qualifiers   /citation=[number]
                      /db_xref="<database>:<identifier>"
                      /evidence=<evidence_value>
                      /function="text"
                      /gene="text"
                      /label=feature_label
                      /locus_tag="text" (single token)
                      /map="text"
                      /note="text"
                      /number=unquoted text (single token)
                      /phenotype="text"
                      /product="text"
                      /pseudo
                      /standard_name="text"
                      /usedin=accnum:feature_label

Feature Key           misc_recomb

Definition            site of any generalized, site-specific or replicative
                      recombination event where there is a breakage and
                      reunion of duplex DNA that cannot be described by other
                      recombination keys or qualifiers of source key 
                      (/insertion_seq, /transposon, /proviral);

Optional qualifiers   /citation=[number]
                      /db_xref="<database>:<identifier>"
                      /evidence=<evidence_value>
                      /gene="text"
                      /label=feature_label
                      /locus_tag="text" (single token)
                      /map="text"
                      /note="text"
                      /organism="text"
                      /standard_name="text"
                      /usedin=accnum:feature_label

Molecule scope        DNA


 
Feature Key           misc_RNA


Definition            any transcript or RNA product that cannot be defined by
                      other RNA keys (prim_transcript, precursor_RNA, mRNA,
                      5'clip, 3'clip, 5'UTR, 3'UTR, exon, CDS, sig_peptide,
                      transit_peptide, mat_peptide, intron, polyA_site, rRNA,
                      tRNA, scRNA, and snRNA);

Optional qualifiers   /citation=[number]
                      /db_xref="<database>:<identifier>"
                      /evidence=<evidence_value>
                      /function="text"
                      /gene="text"
                      /label=feature_label
                      /locus_tag="text" (single token)
                      /map="text"
                      /note="text"
                      /product="text"
                      /standard_name="text"
                      /usedin=accnum:feature_label
 
Feature Key           misc_signal


Definition            any region containing a signal controlling or altering
                      gene function or expression that cannot be described by
                      other signal keys (promoter, CAAT_signal, TATA_signal,
                      -35_signal, -10_signal, GC_signal, RBS, polyA_signal,
                      enhancer, attenuator, terminator, and rep_origin).

Optional qualifiers   /citation=[number]
                      /db_xref="<database>:<identifier>"
                      /evidence=<evidence_value>
                      /function="text"
                      /gene="text"
                      /label=feature_label
                      /locus_tag="text" (single token)
                      /map="text"
                      /note="text"
                      /phenotype="text"
                      /standard_name="text"
                      /usedin=accnum:feature_label
 
Feature Key           misc_structure


Definition            any secondary or tertiary nucleotide structure or 
                      conformation that cannot be described by other Structure
                      keys (stem_loop and D-loop);

Optional qualifiers   /citation=[number]
                      /db_xref="<database>:<identifier>"
                      /evidence=<evidence_value>
                      /function="text"
                      /gene="text"
                      /label=feature_label
                      /locus_tag="text" (single token)
                      /map="text"
                      /note="text"
                      /standard_name="text"
                      /usedin=accnum:feature_label
 
Feature Key           modified_base


Definition            the indicated nucleotide is a modified nucleotide and
                      should be substituted for by the indicated molecule
                      (given in the mod_base qualifier value)
 
Mandatory qualifiers  /mod_base=<modified_base>

Optional qualifiers   /citation=[number]
                      /db_xref="<database>:<identifier>"
                      /evidence=<evidence_value>
                      /frequency="text"
                      /gene="text"
                      /label=feature_label
                      /locus_tag="text" (single token)
                      /map="text"
                      /note="text"
                      /usedin=accnum:feature_label


Feature Key           mRNA


Definition            messenger RNA; includes 5'untranslated region (5'UTR),
                      coding sequences (CDS, exon) and 3'untranslated region
                      (3'UTR);

Optional qualifiers   /allele="text"
                      /citation=[number]
                      /db_xref="<database>:<identifier>"
                      /evidence=<evidence_value>             
                      /function="text"
                      /gene="text"
                      /label=feature_label
                      /locus_tag="text" (single token)
                      /map="text"
                      /note="text"
                      /product="text"
                      /pseudo
                      /standard_name="text"
                      /usedin=accnum:feature_label
 
Feature Key           N_region


Definition            extra nucleotides inserted between rearranged 
                      immunoglobulin segments.

Optional qualifiers   /citation=[number]
                      /db_xref=":"
                      /evidence=<evidence_value>
                      /gene="text"
                      /label=feature_label
                      /locus_tag="text" (single token)
                      /map="text"
                      /note="text"
                      /product="text"
                      /pseudo
                      /standard_name="text"
                      /usedin=accnum:feature_label

Parent Key            CDS

Organism scope        eukaryotes
 
Feature Key           old_sequence


Definition            the presented sequence revises a previous version of the
                      sequence at this location;

Mandatory qualifiers  /citation=[number]

Optional qualifiers   /db_xref="<database>:<identifier>"
                      /evidence=<evidence_value>
                      /gene="text"
                      /label=feature_label
                      /locus_tag="text" (single token)
                      /map="text"
                      /note="text"
                      /replace="text"
                      /usedin=accnum:feature_label

 
Feature Key           polyA_signal


Definition            recognition region necessary for endonuclease cleavage
                      of an RNA transcript that is followed by polyadenylation;
                      consensus=AATAAA [1];

Optional qualifiers   /citation=[number]
                      /db_xref="<database>:<identifier>"                      
                      /evidence=<evidence_value>
                      /gene="text"
                      /label=feature_label
                      /locus_tag="text" (single token)
                      /map="text"
                      /note="text"
                      /usedin=accnum:feature_label

Organism scope        eukaryotes and eukaryotic viruses

 
Feature Key           polyA_site


Definition            site on an RNA transcript to which will be added adenine
                      residues by post-transcriptional polyadenylation;

Optional qualifiers   /citation=[number]
                      /db_xref="<database>:<identifier>"                      
                      /evidence=<evidence_value>
                      /gene="text"
                      /label=feature_label
                      /locus_tag="text" (single token)
                      /map="text"
                      /note="text"
                      /usedin=accnum:feature_label

Organism scope        eukaryotes and eukaryotic viruses
 
Feature Key           precursor_RNA


Definition            any RNA species that is not yet the mature RNA product;
                      may include 5' clipped region (5'clip), 5' untranslated
                      region (5'UTR), coding sequences (CDS, exon),
                      intervening sequences (intron), 3' untranslated region
                      (3'UTR), and 3' clipped region (3'clip);

Optional qualifiers   /allele="text"
                      /citation=[number]
                      /db_xref="<database>:<identifier>"  
                      /evidence=<evidence_value>
                      /function="text"
                      /gene="text"
                      /label=feature_label
                      /locus_tag="text" (single token)
                      /map="text"
                      /note="text"
                      /product="text"
                      /standard_name="text"
                      /usedin=accnum:feature_label

Feature Key           prim_transcript


Definition            primary (initial, unprocessed) transcript;  includes 5'
                      clipped region (5'clip), 5' untranslated region (5'UTR),
                      coding sequences (CDS, exon), intervening sequences
                      (intron), 3' untranslated region (3'UTR), and 3' clipped
                      region (3'clip);

Optional qualifiers   /allele="text"
                      /citation=[number]
                      /db_xref="<database>:<identifier>"
                      /evidence=<evidence_value>
                      /function="text"
                      /gene="text"
                      /label=feature_label
                      /locus_tag="text" (single token)
                      /map="text"
                      /note="text"
                      /standard_name="text"
                      /usedin=accnum:feature_label
 
Feature Key           primer_bind


Definition            non-covalent primer binding site for initiation of
                      replication, transcription, or reverse transcription;
                      includes site(s) for synthetic e.g., PCR primer elements;

Optional qualifiers   /citation=[number]
                      /db_xref="<database>:<identifier>"
                      /evidence=<evidence_value>
                      /gene="text"
                      /label=feature_label
                      /locus_tag="text" (single token)
                      /map="text"
                      /note="text"
                      /standard_name="text"
                      /PCR_conditions="text"
                      /usedin=accnum:feature_label


Feature Key           promoter


Definition            region on a DNA molecule involved in RNA polymerase
                      binding to initiate transcription;

Optional qualifiers   /citation=[number]
                      /db_xref="<database>:<identifier>"
                      /evidence=<evidence_value>
                      /function="text"
                      /gene="text"
                      /label=feature_label
                      /locus_tag="text" (single token)
                      /map="text"
                      /note="text"
                      /phenotype="text"
                      /pseudo
                      /standard_name="text"
                      /usedin=accnum:feature_label

Molecule scope        DNA
 
Feature Key           protein_bind


Definition            non-covalent protein binding site on nucleic acid;

Mandatory qualifiers  /bound_moiety="text"

Optional qualifiers   /citation=[number]
                      /db_xref="<database>:<identifier>"
                      /evidence=<evidence_value>
                      /function="text"
                      /gene="text"
                      /label=feature_label
                      /locus_tag="text" (single token)
                      /map="text"
                      /note="text"
                      /standard_name="text"
                      /usedin=accnum:feature_label

 
Feature Key           RBS


Definition            ribosome binding site;


Optional qualifiers   /citation=[number]
                      /db_xref="<database>:<identifier>"
                      /evidence=<evidence_value> 
                      /gene="text"
                      /label=feature_label
                      /locus_tag="text" (single token)
                      /map="text"
                      /note="text"
                      /standard_name="text"
                      /usedin=accnum:feature_label

 
Feature Key           repeat_region


Definition            region of genome containing repeating units;

Optional qualifiers   /citation=[number]
                      /db_xref="<database>:<identifier>" 
                      /evidence=<evidence_value>
                      /function="text"
                      /gene="text"
                      /insertion_seq="text"                      
                      /label=feature_label
                      /locus_tag="text" (single token)
                      /map="text"
                      /note="text"
                      /rpt_family="text"
                      /rpt_type=<repeat_type>
                      /rpt_unit=<feature_label> or <base_range>
                      /standard_name="text"
                      /transposon="text"
                      /usedin=accnum:feature_label


 
Feature Key           repeat_unit


Definition            single repeat element;

Optional qualifiers   /citation=[number]
                      /db_xref="<database>:<identifier>"
                      /evidence=<evidence_value>
                      /function="text"
                      /gene="text"
                      /label=feature_label
                      /locus_tag="text" (single token)
                      /map="text"
                      /note="text"
                      /rpt_family="text"
                      /rpt_type=
                      /rpt_unit=<feature_label> or <base_range>
                      /usedin=accnum:feature_label

Feature Key           rep_origin


Definition            origin of replication; starting site for duplication of
                      nucleic acid to give two identical copies; 

Optional Qualifiers   /citation=[number]
                      /db_xref="<database>:<identifier>"
                      /direction=value
                      /evidence=<evidence_value>
                      /gene="text"
                      /label=feature_label
                      /locus_tag="text" (single token)
                      /map="text"
                      /note="text"
                      /standard_name="text"
                      /usedin=accnum:feature_label


Feature Key           rRNA


Definition            mature ribosomal RNA ; RNA component of the
                      ribonucleoprotein particle (ribosome) which assembles
                      amino acids into proteins.

Optional qualifiers   /citation=[number]
                      /db_xref="<database>:<identifier>"
                      /evidence=<evidence_value>
                      /function="text"
                      /gene="text"
                      /label=feature_label
                      /locus_tag="text" (single token)
                      /map="text"
                      /note="text"
                      /product="text"
                      /pseudo
                      /standard_name="text"
                      /usedin=accnum:feature_label

Feature Key           S_region


Definition            switch region of immunoglobulin heavy chains;  
                      involved in the rearrangement of heavy chain DNA leading 
                      to the expression of a different immunoglobulin class 
                      from the same B-cell;

Optional qualifiers   /citation=[number]
                      /db_xref="<database>:<identifier>"
                      /evidence=<evidence_value>
                      /gene="text"
                      /label=feature_label
                      /locus_tag="text" (single token)
                      /map="text"
                      /note="text"
                      /product="text"
                      /pseudo
                      /standard_name="text"
                      /usedin=accnum:feature_label

Parent Key            misc_signal

Organism scope        eukaryotes
 
Feature Key           satellite


Definition            many tandem repeats (identical or related) of a short
                      basic repeating unit;  many have a base composition or
                      other property different from the genome average  that
                      allows them to be separated from the bulk (main band)
                      genomic DNA;

Optional qualifiers   /citation=[number]
                      /db_xref="<database>:<identifier>"                      
                      /evidence=<evidence_value>
                      /gene="text"
                      /label=feature_label
                      /locus_tag="text" (single token)
                      /map="text"
                      /note="text"
                      /rpt_type=<repeat_type>
                      /rpt_family="text"
                      /rpt_unit=<feature_label> or <base_range>
                      /standard_name="text"
                      /usedin=accnum:feature_label

Molecule scope        DNA

Feature Key           scRNA


Definition            small cytoplasmic RNA; any one of several small
                      cytoplasmic RNA molecules present in the cytoplasm and
                      (sometimes) nucleus of a eukaryote; 

Optional qualifiers   /citation=[number]
                      /db_xref="<database>:<identifier>" 
                      /evidence=<evidence_value>
                      /function="text"
                      /gene="text"
                      /label=feature_label
                      /locus_tag="text" (single token) 
                      /map="text"
                      /note="text"
                      /product="text"
                      /pseudo
                      /standard_name="text"
                      /usedin=accnum:feature_label
 
Feature Key           sig_peptide


Definition            signal peptide coding sequence; coding sequence for an
                      N-terminal domain of a secreted protein; this domain is
                      involved in attaching nascent polypeptide to the
                      membrane leader sequence;

Optional qualifiers   /citation=[number]
                      /db_xref="<database>:<identifier>"
                      /evidence=<evidence_value>
                      /function="text"
                      /gene="text"
                      /label=feature_label
                      /locus_tag="text" (single token)
                      /map="text"
                      /note="text"
                      /product="text"
                      /pseudo
                      /standard_name="text"
                      /usedin=accnum:feature_label


 
Feature Key           snRNA

Definition            small nuclear RNA molecules involved in pre-mRNA 
                      splicing and processing  
Optional qualifiers   /citation=[number]
                      /db_xref="<database>:<identifier>" 
                      /evidence=<evidence_value>
                      /function="text"
                      /gene="text"
                      /label=feature_label
                      /locus_tag="text" (single token)
                      /map="text"
                      /note="text"
                      /product="text"
                      /pseudo
                      /standard_name="text"
                      /usedin=accnum:feature_label

 
Feature Key           snoRNA

Definition            small nucleolar RNA molecules mostly involved in 
                      rRNA modification and processing;  

Optional qualifiers   /citation=[number]
                      /db_xref="<database>:<identifier>" 
                      /evidence=<evidence_value>
                      /function="text"
                      /gene="text"
                      /label=feature_label
                      /locus_tag="text" (single token)
                      /map="text"
                      /note="text"
                      /product="text"
                      /pseudo
                      /standard_name="text"
                      /usedin=accnum:feature_label

Feature Key           source


Definition            identifies the biological source of the specified
                      span of the sequence; this key is mandatory; more 
                      than one source key per sequence is permissible; 
                      every entry will have, as a minimum, a single 
                      source key spanning the entire sequence or
                      multiple source keys together spanning the entire 
                      sequence;

Mandatory qualifiers  /organism="text"
                      
Optional qualifiers   /cell_line="text"
                      /cell_type="text"
                      /chromosome="text"
                      /citation=[number]
                      /clone="text"
                      /clone_lib="text"
                      /country="any country from
                      http://www.ncbi.nlm.nih.gov/projects/country.html" 
                      /cultivar="text"
                      /db_xref="<database>:<identifier>"
                      /dev_stage="text"
                      /environmental_sample
                      /focus
                      /frequency="text"
                      /germline
                      /haplotype="text"
                      /lab_host="text"
                      /isolate="text"
                      /isolation_source="text"
                      /label=feature_label
                      /macronuclear
                      /map="text"
                      /mol_type="text"
                      /note="text"
                      /organelle=<organelle_value>
                      /plasmid="text"
                      /pop_variant="text"
                      /proviral
                      /rearranged
                      /segment="text"
                      /sequenced_mol="text"
                      /serotype="text"
                      /serovar="text"
                      /sex="text"
                      /specimen_voucher="text"
                      /specific_host="text"
                      /strain="text"
                      /sub_clone="text"
                      /sub_species="text"
                      /sub_strain="text"
                      /tissue_lib="text"
                      /tissue_type="text"
                      /transgenic
                      /usedin=accnum:feature_label
                      /variety="text"
                      /virion

Molecule scope        any

 
Feature Key           stem_loop


Definition            hairpin; a double-helical region formed by base-pairing
                      between adjacent (inverted) complementary sequences in a
                      single strand of RNA or DNA. 

Optional qualifiers   /citation=[number]
                      /db_xref="<database>:<identifier>"
                      /evidence=<evidence_value>
                      /function="text"
                      /gene="text"
                      /label=feature_label
                      /locus_tag="text" (single token)
                      /map="text"
                      /note="text"
                      /standard_name="text"
                      /usedin=accnum:feature_label
 
Feature Key           STS

Definition            sequence tagged site; short, single-copy DNA sequence
                      that characterizes a mapping landmark on the genome and
                      can be detected by PCR; a region of the genome can be
                      mapped by determining the order of a series of STSs;

Optional qualifiers   /citation=[number]
                      /db_xref="<database>:<identifier>"
                      /evidence=<evidence_value>
                      /gene="text"
                      /label=feature_label
                      /locus_tag="text" (single token)
                      /map="text"
                      /note="text"
                      /standard_name="text"
                      /usedin=accnum:feature_label

Molecule scope        DNA

Parent key            misc_binding

Feature Key           TATA_signal


Definition            TATA box; Goldberg-Hogness box; a conserved AT-rich
                      septamer found about 25 bp before the start point of
                      each eukaryotic RNA polymerase II  transcript  unit which
                      may be involved in positioning the enzyme  for correct 
                      initiation; consensus=TATA(A or T)A(A or T) [1,2];

Optional qualifiers   /citation=[number]
                      /db_xref="<database>:<identifier>"
                      /evidence=<evidence_value>
                      /gene="text"
                      /label=feature_label
                      /locus_tag="text" (single token) 
                      /map="text"
                      /note="text"
                      /usedin=accnum:feature_label

Organism scope        eukaryotes and eukaryotic viruses

Molecule scope        DNA


Feature Key           terminator


Definition            sequence of DNA located either at the end of the
                      transcript that causes RNA polymerase to terminate 
                      transcription;

Optional qualifiers   /citation=[number]
                      /db_xref="<database>:<identifier>"
                      /evidence=<evidence_value>
                      /gene="text"
                      /label=feature_label
                      /locus_tag="text" (single token)
                      /map="text"
                      /note="text"
                      /standard_name="text"
                      /usedin=accnum:feature_label

Molecule scope        DNA
 
Feature Key           transit_peptide


Definition            transit peptide coding sequence; coding sequence for an
                      N-terminal domain of a nuclear-encoded organellar
                      protein; this domain is involved in post-translational
                      import of the protein into the organelle;

Optional qualifiers   /citation=[number]
                      /db_xref="<database>:<identifier>"
                      /evidence=<evidence_value>
                      /function="text"
                      /gene="text"
                      /label=feature_label
                      /locus_tag="text" (single token)
                      /map="text"
                      /note="text"
                      /product="text"
                      /pseudo
                      /standard_name="text"
                      /usedin=accnum:feature_label

 
Feature Key           tRNA


Definition            mature transfer RNA, a small RNA molecule (75-85 bases
                      long) that mediates the translation of a nucleic acid
                      sequence into an amino acid sequence;

Optional qualifiers   /anticodon=(pos:<base_range>,aa:<amino_acid>)
                      /citation=[number]
                      /db_xref="<database>:<identifier>"
                      /evidence=<evidence_value>
                      /function="text"
                      /gene="text"
                      /label=feature_label
                      /locus_tag="text" (single token)
                      /map="text"
                      /note="text"
                      /product="text"
                      /pseudo
                      /standard_name="text"
                      /usedin=accnum:feature_label
 
Feature Key           unsure


Definition            author is unsure of exact sequence in this region;

Optional qualifiers   /citation=[number]
                      /db_xref="<database>:<identifier>"
                      /evidence=<evidence_value>
                      /gene="text"
                      /label=feature_label
                      /locus_tag="text" (single token)
                      /map="text"
                      /note="text"
                      /replace="text"
                      /usedin=accnum:feature_label

 
Feature Key           V_region
 

Definition            variable region of immunoglobulin light and heavy
                      chains, and T-cell receptor alpha, beta, and gamma
                      chains;  codes for the variable amino terminal portion;
                      can be composed of V_segments, D_segments, N_regions,
                      and J_segments;

Optional qualifiers   /citation=[number]
                      /db_xref="<database>:<identifier>"
                      /evidence=<evidence_value>
                      /gene="text"
                      /label=feature_label
                      /locus_tag="text" (single token)
                      /map="text"
                      /note="text"
                      /product="text"
                      /pseudo
                      /standard_name="text"
                      /usedin=accnum:feature_label

Parent Key            CDS

Organism scope        eukaryotes
 

Feature Key           V_segment


Definition            variable segment of immunoglobulin light and heavy
                      chains, and T-cell receptor alpha, beta, and gamma
                      chains; codes for most of the variable region (V_region)
                      and the last few amino acids of the leader peptide;

Optional qualifiers   /citation=[number]
                      /db_xref="<database>:<identifier>"
                      /evidence=<evidence_value>
                      /gene="text"
                      /label=feature_label
                      /locus_tag="text" (single token)
                      /map="text"
                      /note="text"
                      /product="text"
                      /pseudo
                      /standard_name="text"
                      /usedin=accnum:feature_label

Parent Key            CDS

Organism scope        eukaryotes
 
Feature Key           variation

Definition            a related strain contains stable mutations from the same
                      gene (e.g., RFLPs, polymorphisms, etc.) which differ
                      from the presented sequence at this location (and
                      possibly others);

Optional qualifiers   /allele="text"
                      /citation=[number]
                      /db_xref="<database>:<identifier>"
                      /evidence=<evidence_value>
                      /frequency="text"
                      /gene="text"
                      /label=feature_label
                      /locus_tag="text" (single token)
                      /map="text"
                      /note="text"
                      /phenotype="text"
                      /product="text"
                      /replace="text"
                      /standard_name="text"
                      /usedin=accnum:feature_label

 
Feature Key           3'clip


Definition            3'-most region of a precursor transcript that is clipped
                      off during processing;

Optional qualifiers   /allele="text"
                      /citation=[number]
                      /db_xref="<database>:<identifier>"
                      /evidence=<evidence_value>
                      /function="text"
                      /gene="text"
                      /label=feature_label
                      /locus_tag="text" (single token)
                      /map="text"
                      /note="text"
                      /standard_name="text"
                      /usedin=accnum:feature_label
 
Feature Key           3'UTR


Definition            region at the 3' end of a mature transcript (following 
                      the stop codon) that is not translated into a protein;

Optional qualifiers   /allele="text"
                      /citation=[number]
                      /db_xref="<database>:<identifier>"
                      /evidence=<evidence_value>
                      /function="text"
                      /gene="text"
                      /label=feature_label
                      /locus_tag="text" (single token)
                      /map="text"
                      /note="text"
                      /standard_name="text"
                      /usedin=accnum:feature_label
 
Feature Key           5'clip

Definition            5'-most region of a precursor transcript that is clipped
                      off during processing;

Optional qualifiers   /allele="text"
                      /citation=[number]
                      /db_xref="<database>:<identifier>
                      /evidence=<evidence_value>
                      /function="text"
                      /gene="text"
                      /label=feature_label
                      /locus_tag="text" (single token) 
                      /map="text"
                      /note="text"
                      /standard_name="text"
                      /usedin=accnum:feature_label
 
Feature Key           5'UTR


Definition            region at the 5' end of a mature transcript (preceding 
                      the initiation codon) that is not translated into a 
                      protein;

Optional qualifiers   /allele="text"
                      /citation=[number]
                      /db_xref="<database>:<identifier>"
                      /evidence=<evidence_value>
                      /function="text"
                      /gene="text"
                      /label=feature_label
                      /locus_tag="text" (single token)
                      /map="text"
                      /note="text"
                      /standard_name="text"
                      /usedin=accnum:feature_label
 
Feature Key           -10_signal


Definition            Pribnow box; a conserved region about 10 bp upstream of
                      the start point of bacterial transcription units which
                      may be involved in  binding RNA polymerase;
                      consensus=TAtAaT [1,2,3,4];

Optional qualifiers   /citation=[number]
                      /db_xref="<database>:<identifier>"
                      /evidence=<evidence_value>
                      /gene="text"
                      /label=feature_label
                      /locus_tag="text" (single token)
                      /map="text"
                      /note="text"
                      /standard_name="text"
                      /usedin=accnum:feature_label

Organism scope        prokaryotes

Molecule scope        DNA

 
Feature Key           -35_signal


Definition            a conserved hexamer about 35 bp upstream of the start
                      point of bacterial transcription units; consensus=TTGACa
                      [  ] or TGTTGACA [  ];

Optional qualifiers   /citation=[number]
                      /db_xref="<database>:<identifier>"
                      /evidence=<evidence_value>
                      /gene="text"
                      /label=feature_label
                      /locus_tag="text" (single token)
                      /map="text"
                      /note="text"
                      /standard_name="text"
                      /usedin=accnum:feature_label

Organism scope        prokaryotes

Molecule scope        DNA

 
Feature Key           -


Definition            "-" is a placeholder for no key; 
                      should be used when the need is merely to mark 
                      region in order to comment on it or to use it in
                      another feature's location;

Optional qualifiers   /citation=[number]
                      /db_xref="<database>:<identifier>"
                      /evidence=<evidence_value>
                      /function="text"
                      /gene="text"
                      /label=feature_label
                      /locus_tag="text" (single token)
                      /map="text"
                      /note="text"
                      /number=unquoted text (single token)
                      /phenotype="text"
                      /product="text"
                      /pseudo
                      /standard_name="text"
                      /usedin=accnum:feature_label

Qualifier       /allele=
Definition      name of the allele for the given gene 


Qualifier       /anticodon=(pos:  ,aa:  )
Definition      location of the anticodon of tRNA and the amino acid for which
                it codes

Qualifier       /bound_moiety=
Definition      moiety bound
Value format    "text"
Example         /bound_moiety="repressor"


Qualifier       /cell_line=
Definition      cell line from which the sequence was obtained
Value format    "text"
Example         /cell_line="MCF7"


Qualifier       /cell_type=
Definition      cell type from which the sequence was obtained
Value format    "text"
Example         /cell_type="leukocyte"


Qualifier       /chromosome=
Definition      chromosome (e.g. Chromosome number) from which
                the sequence was obtained
Value format    "text"
Example         /chromosome="1"

 
Qualifier       /citation=
Definition      reference to a citation listed in the entry reference field
Value format    [integer-number] where integer-number is the number of the
                reference as enumerated in the reference field
Example         /citation=[3]


Qualifier       /clone=
Definition      clone from which the sequence was obtained
Value format    "text"
Example         /clone="lambda-hIL7.3"


Qualifier       /clone_lib=
Definition      clone library from which the sequence was obtained
Value format    "text"
Example         /clone_lib="lambda-hIL7"


Qualifier       /codon=
Definition      specifies a codon which is different from any found in the
                reference genetic code
Value format    (seq:"codon-sequence",aa:<amino_acid) where
                codon-sequence is the bases of the codon and amino_acid is
                either the abbreviation for the translated amino acid, taken
                from the controlled vocabulary section 7.5.3 or for modified/unusual
                amino_acids from section 7.5.4 or it can be the word OTHER
Example         /codon=(seq:"ttt",aa:Leu)


Qualifier       /codon_start=
Definition      indicates the offset at which the first complete codon of a
                coding feature can be found, relative to the first base of that
                feature.
Value format    1 or 2 or 3
Example         /codon_start=2
 


Qualifier       /cons_splice=
Definition      differentiates between intron splice sites that conform
                to the 5'-GT ... AG-3' splice site consensus
Value format    (5'site:<value>, 3'site:<value>), where <value> 
                can be 'YES', 'NO' or 'ABSENT'
Example         /cons_splice=(5'site:YES, 3'site:NO)
                /cons_splice=(5'site:ABSENT, 3'site:NO)



Qualifier       /country=
Definition      country of origin for DNA sample, intended
                for epidemiological or population studies.
Value format:   "any country from        
                http://www.ncbi.nlm.nih.gov/projects/collab/country.html"
Example:        "Canada"
               

Qualifier       /cultivar=
Definition      cultivar (cultivated variety) of plant from which sequence was 
                obtained. 
Value format:   "text"
Example:        /cultivar="Nipponbare"
                /cultivar="Tenuifolius"
                /cultivar="Candy Cane"
                /cultivar="IR36"


Qualifier       /db_xref=
Definition      database cross-reference: pointer to related information in 
                another database.
Value format    "<database:identifier>" where database is
                the name of the database containing related information, and 
                identifier is the internal identifier of the related information
                according to the naming conventions of the cross-referenced 
                database.
Example         /db_xref="SWISS-PROT:P12345"

Qualifier       /dev_stage=
Definition      if the sequence was obtained from an organism in a specific 
                developmental stage, it is specified with this qualifier
Value format    "text"
Example         /dev_stage="fourth instar larva"
 

Qualifier       /direction=
Definition      direction of DNA replication
Value format    left, right, or both where left indicates toward the 5' end of
                the entry sequence (as presented) and right indicates toward
                the 3' end
Example         /direction=LEFT


Qualifier       /EC_number=
Definition      Enzyme Commission number for enzyme product of sequence
Value format    "text"
Example         /EC_number="1.1.2.4"

Qualifier       /environmental_sample
Definition      identifies sequences derived by direct molecular
                isolation (PCR, DGGE, or other anonymous methods) from 
                an environmental sample with no reliable identification 
                of the source organism
Value format    none
Example         /environmental_sample


Qualifier       /evidence=
Definition      value indicating the nature of supporting evidence,
                distinguishing between experimentally determined and
                theoretically derived data
Value format    experimental, not_experimental
Example         /evidence=experimental


Qualifier       /exception=
Definition      indicates that the amino acid or RNA sequence
                will not translate or agree with the DNA  sequence according 
                to standard biological rules.
Value format    "text"
Example         /exception="RNA editing"
                /exception="reasons given in citation"
 
Qualifier       /focus
Definition      defines the source feature of primary biological interest for 
                records that have multiple source features originating from 
                different organisms 
Value format    none
Example         /focus



Qualifier       /frequency=
Definition      frequency of the occurrence of a feature
Value format    text representing the fraction of population carrying the
                variation expressed as a decimal fraction
Example         /frequency=".85"


Qualifier       /function=
Definition      function attributed to a sequence
Value format    "text"
Example         function="essential for recognition of cofactor"


Qualifier       /gene=
Definition      symbol of the gene corresponding to a sequence region
Value format    "text"
Example         /gene="ilvE"


Qualifier       /germline
Definition      if the sequence shown is DNA and a member of the immunoglobulin 
                family, this qualifier is used to denote that the sequence is
                from unrearranged DNA. 
Value format    none
Example         /germline


Qualifier       /haplotype=
Definition      haplotype of organism from which the sequence was obtained
Value format    "text"
Example         /haplotype="Dw3 B5 Cw1 A1"


Qualifier       /insertion_seq=
Definition      insertion sequence element  from which the sequence 
                was obtained
Value format    "text"
Example         /insertion_seq="IS-11"
                

Qualifier       /isolate=
Definition      individual isolate from which the sequence was obtained
Value format    "text"
Example         /isolate="Patient #152"

 
Qualifier       /isolation_source=
Definition      describes the physical, environmental and/or local
                geographical source of the biological sample from which
                the sequence was derived
Value format    "text"
Examples        /isolation_source="rumen isolates from standard 
                Pelleted ration-fed steer #67"
                /isolation_source="permanent Antarctic sea ice"
                /isolation_source="denitrifying activated sludge from
                carbon_limited continuous reactor" 


Qualifier       /label=
Definition      a label used to permanently tag a feature
Value format    feature_label  
Example         /label=Alb1_exon1

Qualifier       /lab_host=
Definition      laboratory host used to propagate the organism from which the 
                sequence was obtained
Value format    "text"
Example         /lab_host="chicken embryos"


Qualifier:      /locus_tag
Definition:     feature tag assigned for tracking purposes 
Value Format:   "text"(single token)
Example:        /locus_tag="RSc0382"
                /locus_tag="YPO0002"


Qualifier       /map=
Definition      genomic map position of feature
Value format    "text"
Example         /map="8q12-13"


Qualifier       /macronuclear
Definition      if the sequence shown is DNA and from an organism which 
                undergoes chromosomal differentiation between macronuclear and
                micronuclear stages, this qualifier is used to denote that the 
                sequence is from macronuclear DNA. 
Value format    none
Example         /macronuclear


 
Qualifier       /mod_base=
Definition      abbreviation for a modified nucleotide base
Value format    modified_base
Example         /mod_base=m5c


Qualifier       /mol_type=
Definition      in vivo molecule type of sequence  
Value format    "text"
Example         /mol_type="genomic DNA", 
 

Qualifier       /note=
Definition      any comment or additional information
Value format    "text"
Example         /note="This qualifier is equivalent to a comment."


Qualifier       /number=
Definition      a number to indicate the order of genetic elements (e.g.,
                exons or introns) in the 5' to 3' direction
Value format    unquoted text (single token) 
Example         /number=4
                /number=6B


Qualifier       /organelle= 
Definition      type of membrane-bound intracellular structure from which the 
                sequence was obtained
Value format    mitochondrion, nucleomorph, plastid, mitochondrion:kinetoplast,
                plastid:chloroplast, plastid:apicoplast, plastid:chromoplast,
                plastid:cyanelle, plastid:leucoplast, plastid:proplastid,
Examples        /organelle="mitochondrion"
                /organelle="nucleomorph"
                /organelle="plastid"
                /organelle="mitochondrion:kinetoplast"
                /organelle="plastid:chloroplast"
                /organelle="plastid:apicoplast"
                /organelle="plastid:chromoplast"
                /organelle="plastid:cyanelle"
                /organelle="plastid:leucoplast"
                /organelle="plastid:proplastid"


Qualifier       /organism=
Definition      scientific name of the organism that provided the 
                sequenced genetic material.  
Value format    "text"
Example         /organism="Homo sapiens"

Qualifier       /partial
Definition      differentiates between complete regions and partial ones
Value format    none
Example         /partial

 
Qualifier       /PCR_conditions=
Definition      description of reaction conditions and components for PCR 
Value format    "text" 

Qualifier       /phenotype=
Definition      phenotype conferred by the feature
Value format    "text"

Qualifier       /pop_variant=
Definition      population variant from which the sequence was obtained
Value format    "text"


Qualifier       /plasmid=
Definition      name of plasmid from which sequence was obtained
Value format    "text"


Qualifier       /product=
Definition      name of a product encoded by a sequence
Value format    "text"


Qualifier       /protein_id=
Definition      protein identifier, issued by International collaborators.
                this qualifier consists of a stable ID portion (3+5 format
                with 3 position letters and 5 numbers) plus a version number
                after the decimal point.
Value format    <identifier>


Qualifier       /proviral
Definition      if the sequence shown is viral and integrated into another
                organism's genome, this qualifier is used to denote that 
Value format    none


Qualifier       /pseudo
Definition      indicates that this feature is a non-functional version of the
                element named by the feature key
Value format    none


Qualifier       /rearranged
Definition      if the sequence shown is DNA and a member of the immunoglobulin 
                family, this qualifier is used to denote that the sequence is
                from rearranged DNA. 
Value format    none

 
Qualifier       /replace=
Definition      indicates that the sequence identified a feature's intervals is  
       replaced by the sequence shown in "text"; if no sequence is 
       contained within the qualifier, this indicates a deletion.
Value format    "text"
 

Qualifier       /rpt_family=
Definition      type of repeated sequence; "Alu" or "Kpn", for example
Value format    "text"


Qualifier       /rpt_type=
Definition      organization of repeated sequence
Value format    tandem, inverted, flanking, terminal, direct, dispersed, and
                other

Qualifier       /rpt_unit=
Definition      identity of repeat unit which constitutes a repeat_region
Value format    <feature_label>  or  <base_range>


Qualifier       /segment=
Definition      name of viral or phage segment sequenced
Value format    "text"


Qualifier       /sequenced_mol=
Definition      molecule from which the sequence was obtained
Value format    "text"


Qualifier       /serotype=
Definition      serological variety of a species characterized by its
                antigenic properties
Value format    "text"

Qualifier       /serovar=
Definition      serological variety of a species (usually a prokaryote)
                characterized by its antigenic properties
Value format    "text"
 
Qualifier       /sex=
Definition      sex of the organism from which the sequence was obtained
Value format    "text"


Qualifier       /specific_host=
Definition      natural host from which the sequence was obtained
Value format    "text"


Qualifier       /specimen_voucher=
Definition      an identifier of the individual or collection of the source
                organism and the place where it is currently stored, usually
                an institution.
Value format    "text"


Qualifier       /standard_name=
Definition      accepted standard name for this feature
Value format    "text"


Qualifier       /strain=
Definition      strain from which sequence was obtained
Value format    "text"


Qualifier       /sub_clone=
Definition      sub-clone from which sequence was obtained
Value format    "text"


Qualifier       /sub_species=
Definition      name of sub-species of organism from which sequence was
                obtained
Value format    "text"


Qualifier       /sub_strain=
Definition      sub_strain from which sequence was obtained
Value format    "text"


Qualifier       /tissue_lib=
Definition      tissue library from which sequence was obtained
Value format    "text"


Qualifier       /tissue_type=
Definition      tissue type from which the sequence was obtained
Value format    "text"

 
Qualifier       /transgenic
Definition      identifies the source feature of the organism
                which was the recipient of transgenic DNA
Value format    none
  
 
Qualifier       /translation=
Definition      automatically generated one-letter abbreviated amino acid
                sequence derived from either the universal genetic code or the
                table as specified in /transl_table and as determined by
                exceptions in the /transl_except and /codon qualifiers
Value format    IUPAC one-letter amino acid abbreviation, "X" is to be used
                for AA exceptions.


Qualifier       /transl_except=
Definition      translational exception: single codon the translation of which
                does not conform to genetic code defined by Organism and /codon=
Value format    (pos:location,aa:<amino_acid>) where amino_acid is the
                amino acid coded by the codon at the base_range position

Qualifier       /transl_table=
Definition      definition of genetic code table used if other than universal
                genetic code table. Tables used are described in appendix V,
                section 7.5.5.
Value format    <integer; 1=universal table 1;2=non-universal table 2;...
 
Qualifier       /transposon=
Definition      transposable element  from which the sequence was 
                obtained
Value format    "text"



Qualifier       /usedin=
Definition      indicates that the feature is used in a compound feature in
                another entry
Value format    Accession-number:feature-name or 
                Database_name::Acc_number:feature_label


Qualifier	      /variety
Definition      variety (= varietas, a formal Linnaean rank) of organism 
                from which sequence was derived.


Qualifier       /virion
Definition      viral genomic sequence as it is encapsidated (distinguished from 
                its proviral form integrated in a host cell's chromosome) 
Value format    none

 
 
